18075122,The Fusion Kitchen,"Shop 1, Opposite Veda Building, Near Bhavdevi Garage, Holy Cross Road, IC colony, Borivali West, Mumbai",19.2545670000,72.8489230000,950,4.7,"North Indian, Italian, Chinese, Mexican"
17831689,The Food Studio - Kitchen & Bar,"Sector 19, Next to Satra Plaza, Palm Beach Road, Vashi, Navi Mumbai",19.0817123312,73.0049845576,1100,4.0,"Continental, Asian, North Indian"
39773,Eva's Pizza,"7, Harmony Apartments, Off Military Road, Marol, Mumbai",19.1141150664,72.8877140209,650,4.1,"Pizza, Fast Food"
34844,Yasin's Food Inn,"Shop 4 - 5, Shiv Sadan Building, 1st Cross Lane, Lokhandwala Complex, Andheri Lokhandwala, Andheri West",19.1415016632,72.8253828362,850,3.7,"Mughlai, Fast Food, North Indian, Chinese"
45599,Bistro 1,"6 &  7, Mayfair Building, Oberoi Complex, Near Lakshmi Industrial Estate, Behind Citi Mall, Andheri Lokhandwala, Andheri West",19.1366288745,72.8291060776,650,4.0,"Cafe, European, Burger, Salad"
40375,The Food Studio - Kitchen & Bar,"Opposite Runwal Green Project, Mulund Goregaon Link Road, Mulund West, Mumbai",19.1616593023,72.9449211806,1100,3.8,"Continental, Asian, North Indian"
35658,Gurukripa,"55, Thunga Village, Opposite Local Office Bus Stop, Saki Vihar Road, Powai, Mumbai",19.1168727158,72.8891134635,800,3.9,"North Indian, Chinese, Seafood"
17830184,Emprino,"Shop B/3, Gagangiri Premise CHS, Union Park Road, Carter Road, Bandra West",19.0705187753,72.8231643140,550,4.0,"Chinese, Thai"
49003,SpiceKlub,"8A, Janta Industrial Estate, Opposite Phoenix Mills, Senapati Bapat Road, Lower Parel, Mumbai",18.9942366712,72.8255528212,1500,4.1,North Indian
36277,Sammy Sosa,"Shop 18, Meera CHS, Near Mega Mall, Oshiwara Link Road, Oshiwara, Andheri West",19.1511420000,72.8316920000,1700,4.5,"Mexican, Italian, Continental, Salad, Healthy Food"
46021,Cafe Monza,"Plot 5/6, Bhoomi Heights, Opposite Sector 8, Kharghar, Navi Mumbai",19.0320009720,73.0669476092,700,4.2,"Cafe, Continental"
18237753,Tea Villa Cafe,"31, Opposite Globus, Hill Road, Bandra West",19.0558306414,72.8339840099,1000,3.9,"Cafe, Italian, Desserts, Fast Food, Chinese, Tea"
48933,Five Fat Monks,"Shop 2, Ground Floor, The New Kamal Society, Near National College, Waterfield Road, Linking Road, Bandra West",19.0630872511,72.8344825655,650,3.7,"Asian, Chinese"
18270976,Tea Villa Cafe,"28, Aaram Nagar 1, Opposite Dariya Mahal, Versova, Andheri West",19.1311405000,72.8130738000,1000,3.8,"Cafe, Italian, Desserts, Fast Food, Chinese, Tea"
40714,The Little Door,"B 31, Ground Floor, Shree Siddhivinayak Plaza, New Link Road, Veera Desai Area, Mumbai",19.1392686363,72.8330331668,1400,3.9,"Italian, Spanish, Burger"
18234208,Delhi Highway,"A4, Ground Floor, B Wing, Times Square, Andheri East, Sakinaka, Mumbai",19.1080260000,72.8836470000,1200,4.0,"North Indian, Mughlai"
34269,Persian Darbar,"5, Alexandra Terrace, Dr BA Road, Near Gloria Church, Rani Baug, Byculla East, Byculla, Mumbai",18.9759866867,72.8336628154,800,3.8,"Mughlai, North Indian, Chinese, Biryani"
48108,Carter's Blue,"B/2 Gagangari Bulding, Carter Road, Bandra West",19.0707855840,72.8229856119,1500,3.9,"North Indian, Lebanese, Fast Food, Chinese"
18313566,Farzi Cafe,"Kamala Mills, Near Radio Mirchi Office, Lower Parel, Mumbai",19.0035171959,72.8276499733,1500,4.3,Modern Indian
48439,Francesco's Pizzeria,"Shop 9-11, Next to L'vista Furnitures, Skyzone, High Street Phoenix, Senapati Bapat Marg, Lower Parel, Mumbai",18.9953272191,72.8254234046,1000,4.1,"Italian, Pizza, Salad, Healthy Food"
37386,Cafe Mangii,"3, Transocean House, Hiranandani Business Park, Powai, Mumbai",19.1201320998,72.9070172086,1500,3.9,"Continental, Pizza, Italian, Burger, Salad, Healthy Food"
16527711,The Rolling Pin,"12, Janta Industrial Estate, Senapat Bapat Road, Lower Parel, Mumbai",18.9940489948,72.8252027929,700,3.9,"Bakery, Desserts, Cafe"
18358466,Butter Chicken Factory,"Shop 7, Silver Cross Building, 16th & 33rd Road Junction, Pali Hill, Bandra West",19.0656134744,72.8309467435,1000,4.3,North Indian
17871363,The Fatty Bao,"Ground Floor, Summerville, Junction of 14th and 33rd Road, Linking Road, Bandra West",19.0653026103,72.8322181106,2000,4.3,"Sushi, Asian"
18245975,Glocal Junction,"Plot 57, Ground & 1st Floor, Morya Bluemoon Building, New Link Road, Andheri Lokhandwala, Andheri West, Mumbai",19.1390740000,72.8321570000,1000,3.9,"Continental, Fast Food, North Indian, Salad, European"
47458,Persia Darbar,"6-7, Lily Tower CHS Ltd, R.B Sharma Center, S V Road, Jogeshwari West, Jogeshwari, Mumbai",19.1368186068,72.8468281031,800,3.7,"Mughlai, North Indian, Chinese"
45602,West Coast Grill,"25, Bhoomi Colossa, Near Avdhoot Hospital, Opposite Sai mandir, Sector 19, Airoli, Navi Mumbai",19.1600434881,72.9919708148,700,4.1,"Healthy Food, Burger, American, Fast Food, Italian, Pizza, Salad, Finger Food"
44960,Kathi Kabab Roll,"1, Bara Building, Opposite Phoenix Mall, Senapati Bapat Marg, Lower Parel, Mumbai",18.9965420304,72.8268694505,250,4.1,"Fast Food, North Indian, Mughlai"
18140705,SodaBottleOpenerWala,"Ground Floor, The Capital Building, G Block, Bandra Kurla Complex, Mumbai",19.0636205751,72.8623953089,1300,4.2,Parsi
40222,Curry Me Up,"K 77, JP Road, Behind Seven Bungalows Garden, Near Nana Nani Garden, 7 Bungalows, Andheri West",19.1287657198,72.8162911534,700,3.9,"North Indian, Biryani"
48323,Persian Darbar,"Shop 101 - 102, Noori Baug, Andheri Kurla Road, Marol Naka, Marol, Mumbai",19.1096400000,72.8759350000,1300,3.8,"Biryani, North Indian, Chinese, Persian, Mughlai"
32795,Lucky Restaurant,"Junction Of SV Road & Hill Road, Hill Road, Bandra West",19.0541277778,72.8379666667,750,3.7,"Biryani, North Indian, Mughlai, Chinese, Seafood"
44934,Sigree Global Grill,"101, 1st Floor, Ventura Building, Hiranandani Business Park, Central Avenue Road, Powai, Mumbai",19.1163386129,72.9099260643,1500,3.9,"North Indian, Turkish, Lebanese, Greek"
18203251,Pot De Fusion,"Shop no. 1, Plot no. 266, opp. Bindaas binge shop. Film City Road, Goregaon East, Mumbai",19.1761570000,72.8703920000,700,3.4,"North Indian, Continental, Chinese"
37823,5 Spice,"Mithi Nadi, Sakinaka, Mumbai Andheri East",19.1061270000,72.8848160000,1100,3.8,"Chinese, Desserts"
17803673,90 Ft Above,"The Rooftop, Vini Elegance, Above Tanishq Showroom, L.T Road, Borivali West, Mumbai",19.2287826566,72.8526263684,1200,3.6,"North Indian, Italian"
44008,Zaffran,"Todi & Company, Mathuradas Mills Compound, Lower Parel, Mumbai",19.0008797092,72.8296170384,1300,3.7,"North Indian, Mughlai, Biryani, Seafood"
48851,Rude Lounge,"8th Floor, B Wing, Supreme Business Park, Hiranandani Gardens, Powai, Mumbai",19.1111000000,72.9080583333,1600,3.7,"North Indian, Italian, Chinese, Continental"
45707,Theobroma,"G 8, City Park Building, Central Avenue, Hiranadani Gardens, Powai, Mumbai",19.1156553008,72.9088065773,600,4.3,"Bakery, Cafe, Desserts"
18140551,1441 Pizzeria,"19/20, Samartha Vaibhav, Below Sykz Gym, Andheri Lokhandwala, Andheri West",19.1467613516,72.8288385272,1100,4.5,"Pizza, Salad"
40410,Rude Lounge,"6th floor, Link House, Link Road, Chincholi Bunder, Malad West, Mumbai",19.1800316616,72.8361780569,1600,3.7,"North Indian, Italian, Chinese, Continental"
34744,Bhagwati Veg Restaurant,"Kesar Residency, Sector 3, Charkop, Kandivali West, Mumbai",19.2151828186,72.8292961791,550,3.4,"South Indian, Fast Food, North Indian, Chinese, Beverages"
36449,Ahmed Bhai's Bry & Dry,"32, Krishnakamal CHS, Opposite Nerul Police Station, Sector 21, Nerul, Navi Mumbai",19.0295927777,73.0184696987,850,3.6,"North Indian, Mughlai, Biryani, Chinese, Seafood"
36403,Prithvi Cafe,"Prithvi Theatre, Janki Kutir, Juhu Church Road, Juhu, Mumbai",19.1058443767,72.8258394822,350,4.4,"Cafe, Fast Food"
18175476,The Road House,"Boulevard Mall, 201-A, Lodha Complex, Majiwada, Thane West",19.2121393375,72.9851781204,1400,4.2,"Finger Food, Continental"
37237,Candies,"Mac Ronells, Next to Learners Academy School, Pali Hill, Bandra West",19.0607950000,72.8265270000,700,4.4,"Fast Food, Bakery, Desserts, Cafe"
34383,Leopold Cafe & Bar,"S.B. Singh Road, Colaba Causeway, Colaba, Mumbai",18.9226700352,72.8317061439,1600,4.2,"Chinese, Continental, North Indian"
34146,Papa Pancho Da Dhaba,"Gasper Enclave, St John's Road, Near Rupee Bank, Pali Hill, Bandra West",19.0623096026,72.8293779865,1000,4.0,"North Indian, Street Food"
47532,Box8,"Mahakali Caves Road, Subhash Nagar, Andheri East, Mahakali, Mumbai",19.1233682951,72.8641142696,500,3.4,"Pizza, Biryani, Mughlai, Fast Food, Salad, Healthy Food, North Indian"
17805688,Wok Express,"Shop 1-2, Dheeraj Swapna Building, Pali Naka, Pali Hill, Bandra West",19.0619790851,72.8297011927,600,3.1,"Chinese, Thai, Japanese, Asian, Sushi, Seafood, Healthy Food"
49781,Burger King,"3rd Floor, Food Court, Oberoi Mall, Film City Road, Goregaon East, Mumbai",19.1738891910,72.8602666408,500,3.6,"American, Fast Food, Burger"
36438,Pronto,"98, Shams Palace, Hill Road, Bandra West Bandra West Hill Road, Hill Road, Hill Road, Bandra West",19.0547888889,72.8258444444,800,3.6,"Italian, Fast Food, Salad, Pizza, Continental"
46595,Masala Library,"Ground Floor, First International Financial Centre, Bandra Kurla Complex, Mumbai",19.0695006521,72.8692322597,5000,4.7,"North Indian, South Indian"
40374,Cafe Zoe,"Mathuradas Mills Compound, NM Joshi Marg, Lower Parel, Mumbai",19.0002304752,72.8301142529,2000,4.2,"European, Italian, Burger, Salad, Healthy Food"
32693,Pangat,"Near Gokhale College, Gorai Road, Borivali West, Mumbai",19.2308064852,72.8368469328,650,3.7,"North Indian, Chinese, Malwani, Konkan"
18216881,ZOOBAR,"1st Floor, Liberty Lodge, DJ Road, Above Mcdonalds, Vile Parle West, Mumbai",19.1006559369,72.8404102474,1700,4.0,"Finger Food, Italian, American"
18140750,Rustico,"Ground Floor, 1 Khatau building, 48 Bank Street,  Opposite Old Custom House, Fort, Mumbai",18.9295357054,72.8346160054,1500,3.6,"North Indian, Chinese, Continental"
49221,Coffee by Di Bella,"Shop 6/7, Shubham Co-op Housing Society, Juhu Versova Link Road, Versova, Andheri West",19.1253107421,72.8222607449,650,4.0,"Cafe, Desserts"
41308,Leaping Windows,"2 & 3, Corner View, Ashok Chopra Marg, Opposite Bianca Towers, Versova, Andheri West",19.1388913943,72.8134346008,1200,3.9,"American, Continental, European, Cafe, Salad, Healthy Food"
37388,Theobroma,"Ground Floor, Link Square Mall, Off Linking Road, Linking Road, Bandra West",19.0653146519,72.8336038068,600,4.5,"Bakery, Cafe, Desserts"
17851892,Wok Express,"Shop 16, Plot 98-A/116, Grenville CHS Limited, Lokhandwala Complex, Andheri Lokhandwala, Andheri West Andheri Lokhandwala",19.1468649220,72.8285904229,600,2.8,"Healthy Food, Seafood, Chinese, Japanese, Sushi, Asian, Thai"
48023,Go Biryan,"311, Snehanjali CHS, Near Samartha Aishwarya, Aadarsh Nagar/Lokhandwala Complex, Andheri West, Andheri Lokhandwala, Andheri West",19.1444941887,72.8296549246,900,4.1,"Biryani, North Indian, Mughlai"
48540,Frisbees,"Shop 37, Andheri Shiv Shakti CHS, Municipal School Road, Indira Nagar, DN Nagar, Azad Nagar, Mumbai",19.1268426362,72.8289676085,600,4.3,"Fast Food, American, Burger"
47217,Rude Lounge,"Cosmos Heritage Complex, 1st Floor, Unit No 2, Manpada, Thane West, Thane West Thane",19.2364374917,72.9699247330,1600,3.7,"North Indian, Italian, Chinese, Continental"
36833,Chili's,"13, Ventura Building, Hiranandani Business Park, Central Avenue Road, Powai, Mumbai",19.1161992263,72.9095099866,1800,4.0,"American, Mexican, Tex-Mex"
17806979,Burger King,"Express Building, Churchgate, Mumbai",18.9338469000,72.8271738800,500,3.5,"American, Fast Food, Burger"
37995,Quattro Ristorante,"7, Janta India Estate, Senapati Bapat Marg, Opposite Phoenix Mills, Lower Parel, Mumbai",18.9945879299,72.8250908107,1800,4.5,"Italian, Mexican, Burger"
18203267,Chili's,"2nd Floor, Inorbit Mall, Malad West, Mumbai",19.1761274493,72.8354334086,1800,4.0,"American, Mexican, Tex-Mex"
48919,TAP Resto Bar,"Royal Plaza, New Link Road, Andheri Lokhandwala, Andheri West",19.1400326200,72.8315592930,1200,3.9,"North Indian, Chinese, Italian, Mexican"
43281,The J,"3, Vaswani Mansions, Dinshaw Vachha Road, Opposite HR College, Churchgate, Mumbai",18.9301921918,72.8267061710,600,4.2,Fast Food
32835,Persian Darbar,"Moray Mahal, Linking Road, Bandra West",19.0600343103,72.8364040330,1300,3.9,"Biryani, North Indian, Chinese, Persian, Mughlai"
38911,Zaffran,"4th Floor, Infiniti Mall, Link Road, Malad West, Mumbai",19.1851533259,72.8354340792,1300,3.7,"North Indian, Mughlai, Biryani, Seafood"
35511,Papa John's Pizza,"10 - 12, Ground Floor, Citi Park, Opposite Ventura, Hiranandani Business Park, Powai, Mumbai",19.1155710349,72.9087566212,750,2.4,"American, Pizza"
34440,Goa Portuguesa Restobar,"Goa Portuguesa Restobar, Nr. Hinduja Hospital, Matunga (W), Mahim, Mumbai",19.0319325111,72.8403696790,1300,4.1,"Maharashtrian, Goan, North Indian, Seafood"
37206,Lemon Leaf,"Unit 106/107, Comet Building, Next to P.W.C. House, Opposite Bandra Talao, Bandra West, Bandra Talao, Bandra West",19.0594008354,72.8296066448,1200,3.8,"Chinese, Thai, Malaysian, Asian"
44568,Global Fusion,"B 1, Times Square Tech Park, Andheri Kurla Road, Sakinaka Junction, Andheri East, Marol, Mumbai",19.1076200000,72.8832040000,3500,4.3,"Chinese, Japanese, Asian, North Indian"
49105,Fatboy's Kitchen,"Shop 7, Near Lion Kartar Singh Hospital, Dadabhai Road, Azad Nagar, Mumbai",19.1235206633,72.8407089785,700,3.7,"Fast Food, Burger"
41318,Pronto Pasta and Noodles,"1, Indraprastha Tower, Sector 29, Vashi, Navi Mumbai",19.0881497250,73.0044900253,350,3.8,"Italian, Chinese"
18310374,Mumbai 90,"Ground Floor, Chandiwala Arcade, Next to Absolute Furniture, Goregaon Link Road, Goregaon West, Mumbai",19.1646989663,72.8350156546,1000,3.2,"North Indian, Chinese, Fast Food, Continental"
32471,Aaswad,"LJ Road, Shivaji Park, Gadkari Chowk, Dadar Shivaji Park, Mumbai",19.0255760000,72.8407780000,200,4.2,"Maharashtrian, South Indian, Street Food, Desserts, Mithai"
41725,Royale Masterchef Finedine,"Gagangiri Building, Near New Flyover,  Kanderpada Dahisar West, Mumbai",19.2586402200,72.8532251700,1200,3.6,"North Indian, Asian, Continental, Lebanese"
16541542,The Bombay Canteen,"Ground Floor, Process House, Kamala Mills, Near Radio Mirchi Office, S.B. Marg, Lower Parel, Mumbai",19.0031684921,72.8276389092,1600,4.1,"North Indian, South Indian"
40911,Rude Lounge,"31, Opposite Globus Mall, Hill Road, Bandra West, Mumbai",19.0562900000,72.8341650000,1600,3.6,"North Indian, Italian, Chinese, Continental"
48338,The Boston Cupcakery,"Shop 1, Legend Apartment, Near Millat Nagar Circle, Andheri Lokhandwala, Andheri West",19.1468693562,72.8282584995,250,4.2,"Desserts, Bakery"
18237754,Global Chaos Kitchen & Bar,"105-107, Mistry Mansion, Opposite Mumbai University, M G Road, Fort, Mumbai",18.9300567719,72.8314758092,1500,4.1,"American, Asian, Continental, North Indian, European, Mediterranean"
36216,Zaffran,"B, Sitaram Building, DN Road, Crawford Market, Mumbai CST Area, Mumbai",18.9455487973,72.8342649713,1300,3.9,"North Indian, Mughlai, Biryani, Seafood"
16508751,The Sassy Spoon,"Classic Corner Building, Next to Holy Family Hospital, Hill Road, Bandra West",19.0554050000,72.8266310000,1800,4.1,"European, Mediterranean, Continental, Italian, Finger Food, Desserts"
32475,Home Chef,"71 Meher Building, Line of Sushrusha Hospital, Ranade Road, Dadar Shivaji Park, Mumbai",19.0242472728,72.8379141167,600,3.8,"American, Fast Food, Italian, Burger, Salad, Healthy Food"
17806989,Da Capo Cafe & Bistro,"Shop 12 & 13, Bhoomi Heights, Plot 5 & 6, Sector-8, Kharghar, Navi Mumbai",19.0319749822,73.0669865012,850,4.1,"Continental, Cafe"
37327,KFC,"Ground Floor, Haiko Mall, Hiranandani Gardens, Powai, Mumbai",19.1185564274,72.9114512354,400,3.1,"American, Fast Food, Burger"
37730,Aromas Cafe,"Ground Floor, Ventura Building, Hiranandani Gardens, Powai, Mumbai",19.1169164323,72.9098774493,1100,4.1,"Cafe, Continental, Italian, Desserts"
34897,Banana Leaf,"Shubham CHS, Opposite Vikram Petrol Pump, Juhu Versova Link Road, 7 Bungalows, Andheri West",19.1248321015,72.8228712827,600,3.9,South Indian
18281055,Kook,"Swami Jayramadas Shopping Centre, chembur Mahul Road, R.C marg, Near Basant Park, Chembur East, Chembur, Mumbai",19.0504431979,72.8937043995,700,4.0,"North Indian, Biryani, Chinese, Mughlai"
18210372,British Brewing Company,"P4- P5, 4th Floor, Palladium, High Street Phoenix, Lower Parel, Mumbai",18.9957055556,72.8255166667,1600,4.1,"Continental, Burger, Desserts, British, Italian, Pizza, Salad, European"
17805700,Kasbah Grand,"Top Floor, Chandiwala Arcade, Opposite Bangur Nagar, Goregoan Link Road, Goregaon West, Mumbai",19.1645650044,72.8349710628,1400,3.7,"North Indian, Mughlai, Chinese, Thai"
43968,Jamjar Diner,"7A & B, Arram Nagar 2, Behind Washing Bay, Yari Road, Versova, Andheri West",19.1327622790,72.8122266009,1500,4.0,"American, Mexican, Italian, Burger, Salad, Healthy Food"
18276582,Mockingbird Cafe Bar,"80, Veer Nariman Road, Churchgate, Mumbai",18.9333010000,72.8262620000,1700,4.2,"Cafe, Italian, French"
36440,Koyla,"Gulf Hotel, HNA Azmi Marg, Colaba, Mumbai",18.9185006394,72.8310630843,1500,3.7,"North Indian, Mughlai"
18276583,Eva's Pizza,"Shop 7, Nisha Palace, Opposite Goregaon Sports Complex, Malad West, Mumbai",19.1831013860,72.8360208124,650,3.9,"Pizza, Fast Food"
47038,Zohra,"Shop No 16 - 17, Plot 21, Simran Residency, Sector 7, Kharghar, Navi Mumbai",19.0361570695,73.0661157891,700,3.2,"North Indian, Mughlai, Chinese"
