Bikaner,"022 26434767, 022 26433637","Collector Building, Compound, Opposite Aram Hotel, Government Colony, Bandra East, Mumbai",₹200
Shree Ramnath,"022 26405304, 022 26512770","B/18, Mumbai Upnagar Zilhadhikari Bhavan Shop-Keepers Premises CHS, Bandra East, Mumbai",₹150
Lashkara By Punjab Sweet House,022 30151727,"Shop 3 &amp; 7, Dheeraj Arcade, Pali Naka, Pali Hill, Bandra West",₹700
Karachi Sweets,"022 26434905, 022 26404624","Shop 13, 55, Homeland Apartments, Hill Road, Bandra West",₹350
Sweet Bengal,"022 26460621, 022 32545465","5, Ground Floor, Shiv Darshan, 33rd Road, Pali Hill, Bandra West",₹550
Annapurna Farsan Mart,"022 26486669, 022 26004974","Deluxe Mahal building, 16-33 Road corner, Pali Hill, Bandra West Pali Hill",₹300
Farmik,"+91 9820055615, +91 9820997498","Glass Wala Compound, Next to Sarkari Bhandar, Turner Road, Bandra Talao, Bandra West",₹200
"Brijwasi Sweets, The Bankelal Group Est. 1946",022 33126284,"Bharat Diamond Bourse, Shop CC 6, C Tower, Ground Floor, Opposite Asian Heart Hospital, Bandra Kurla Complex, Mumbai",₹150
Eros Sweets,022 26427219,"Diamond Palace, Santosh Nagar, Hill Road, Hill Road, Bandra West",₹150
Chandu Halwai,022 26426970,"4, Naval Kunj, Linking Road, Bandra West",₹200
Shree Gangour Sweets,022 26040903,"1, Mirabelle building, Near National College, Linking Road, Bandra West",₹500
City Sweets,+91 9833106557,"Shop 1, 250/A, Pittalwala Building, Opposite Fish Market, Bazaar road, Hill Road, Bandra West",₹100
Tharu Sweets Mukhi Bhandar,022 26462882,"7-8, Madhuban, Opposite Canara Bank, P.D Hinduja Marg, Khar, Mumbai",₹200
Vijay Stores,"+91 9619004804, 022 26193074","Pathare House, Nehru Road, Santacruz East, Mumbai",₹150
New Karachi Sweets,022 26485974,"Shop 6, Ajanta Building, Near Railway Station, Khar, Mumbai",₹200
Sindhu Sweets,022 26006664,"Satguru Shopping Centre, Ram Krishna Nagar, Third Road, Khar West, Khar, Mumbai",₹200
Ramanlal Vithaldas & Co Mewawala,022 26496373,"Shop No 3, West View Building No.1, S.V. Road, Santacruz West, Mumbai",₹500
GK Sweets,022 61290010,"Opposite Post Office, Nehru Road, Near Santacruz Railway Station, Santacruz East, Mumbai",₹600
