The Junkyard Cafe,022 33956152,"164, Hill Road, Bandra West","₹1,100"
Rude Lounge,022 30151094,"31, Opposite Globus Mall, Hill Road, Bandra West, Mumbai","₹1,600"
Escobar - Tapas Bar,022 30151383,"4th Floor, VN Sphere, Turner And Linking Road, Linking Road, Bandra West","₹2,500"
Lima,022 30151280,"2 North Avenue, Maker Maxity, Bandra Kurla Complex, Mumbai","₹1,500"
Kanpai Lounge Bar,022 33715928,"6th Floor, Suburbia Mall, Above Shopper's Stop, Linking Road, Bandra West","₹1,800"
O22 Bar Lounge - Trident,022 66727777,"Trident Hotel, C 56, G Block, Bandra Kurla Complex, Mumbai Bandra Kurla Complex","₹4,000"
Hoppipola,"+91 8080939726, +91 7710010232","757, Ramee Guestline Hotel, MD Ali Quereshi Chowk, S.V. Road, Khar, Mumbai","₹1,500"
IBar,"+91 9619500288, +91 9930588479","7/8, Gleki, ONGC Colony Building 2, Reclamation, Bandra West","₹2,200"
China House Lounge - Grand Hyatt,022 30151491,"Grand Hyatt, Off Western Express Highway, Santacruz East, Mumbai","₹5,000"
H2O - The Liquid Lounge,"022 26481400, 022 26481500","Hotel Royal Inn, Opposite Khar Telephone Exchange, Off Linking Road, Khar, Mumbai","₹2,000"
The Bar - Grand Hyatt,022 30151830,"Grand Hyatt, Off Western Express Highway, Santacruz East, Mumbai","₹4,000"
